{
	"extends": "tslint:recommended",
	"rulesDirectory": [
		"codelyzer"
	],
	"rules": {
		"array-type": [
			true,
			"array"
		],
		"arrow-parens": false,
		"deprecation": {
			"severity": "warn"
		},
		"import-blacklist": [
			true,
			"rxjs/Rx"
		],
		"interface-name": true,
		"max-classes-per-file": false,
		"max-line-length": false,
		"member-access": false,
		"member-ordering": [
			true,
			{
				"order": [
					"static-field",
					"static-method",
					"instance-field",
					"instance-method"
				]
			}
		],
		"no-conditional-assignment": false,
		"no-consecutive-blank-lines": [
			true,
			1
		],
		"no-console": [
			true,
			"debug",
			"info",
			"time",
			"timeEnd",
			"trace"
		],
		"no-empty": true,
		"no-inferrable-types": false,
		"no-non-null-assertion": false,
		"no-redundant-jsdoc": true,
		"no-switch-case-fall-through": true,
		"no-var-requires": true,
		"object-literal-key-quotes": [
			true,
			"as-needed"
		],
		"object-literal-sort-keys": [ true, "match-declaration-order-only" ],
		"object-literal-shorthand": [ true, "never" ],
		"ordered-imports": [
			true,
			{
				"import-sources-order": "any",
				"named-imports-order": "any",
				"grouped-imports": true,
				"groups": [
					{
						"name": "angular",
						"match": "^@angular/$",
						"order": 10
					},
					{
						"name": "external-amp",
						"match": "^@",
						"order": 20
					},
					{
						"name": "tscommons",
						"match": "^tscommons-",
						"order": 50
					},
					{
						"name": "angularcommons",
						"match": "^ngx-angularcommons-",
						"order": 60
					},
					{
						"name": "webappcommons",
						"match": "^ngx-webappcommons-",
						"order": 65
					},
					{
						"name": "other-ngxcommons",
						"match": "^ngx-[a-z]+commons-",
						"order": 70
					},
					{
						"name": "othercommons",
						"match": "^([a-z]+)commons-",
						"order": 55
					},
					{
						"name": "shared",
						"match": "^shared($|/)",
						"order": 80
					},
					{
						"name": "joint",
						"match": "^joint($|/)",
						"order": 90
					},
					{
						"name": "grand2-components",
						"match": "^\\.\\.\\./\\.\\./([a-z].+/)?components/",
						"order": 200
					},
					{
						"name": "grand2-pipes",
						"match": "^\\.\\.\\./\\.\\./([a-z].+/)?pipes/",
						"order": 210
					},
					{
						"name": "grand2-api",
						"match": "^\\.\\.\\./\\.\\./([a-z].+/)?apis/",
						"order": 220
					},
					{
						"name": "grand2-class",
						"match": "^\\.\\.\\./\\.\\./([a-z].+/)?classes/",
						"order": 230
					},
					{
						"name": "grand2-server",
						"match": "^\\.\\.\\./\\.\\./([a-z].+/)?servers/",
						"order": 240
					},
					{
						"name": "grand2-service",
						"match": "^\\.\\.\\./\\.\\./([a-z].+/)?services/",
						"order": 250
					},
					{
						"name": "grand2-guard",
						"match": "^\\.\\.\\./\\.\\./([a-z].+/)?guards/",
						"order": 254
					},
					{
						"name": "grand2-resolver",
						"match": "^\\.\\.\\./\\.\\./([a-z].+/)?resolvers/",
						"order": 256
					},
					{
						"name": "grand2-helper",
						"match": "^\\.\\.\\./\\.\\./([a-z].+/)?helpers/",
						"order": 260
					},
					{
						"name": "grand2-interface",
						"match": "^\\.\\.\\./\\.\\./([a-z].+/)?interfaces/",
						"order": 270
					},
					{
						"name": "grand2-type",
						"match": "^\\.\\.\\./\\.\\./([a-z].+/)?types/",
						"order": 280
					},
					{
						"name": "grand2-enum",
						"match": "^\\.\\.\\./\\.\\./([a-z].+/)?enums/",
						"order": 290
					},
					{
						"name": "grand1-components",
						"match": "^\\.\\./\\.\\./([a-z].+/)?components/",
						"order": 300
					},
					{
						"name": "grand1-pipes",
						"match": "^\\.\\./\\.\\./([a-z].+/)?pipes/",
						"order": 310
					},
					{
						"name": "grand1-api",
						"match": "^\\.\\./\\.\\./([a-z].+/)?apis/",
						"order": 320
					},
					{
						"name": "grand1-class",
						"match": "^\\.\\./\\.\\./([a-z].+/)?classes/",
						"order": 330
					},
					{
						"name": "grand1-server",
						"match": "^\\.\\./\\.\\./([a-z].+/)?servers/",
						"order": 340
					},
					{
						"name": "grand1-service",
						"match": "^\\.\\./\\.\\./([a-z].+/)?services/",
						"order": 350
					},
					{
						"name": "grand1-guard",
						"match": "^\\.\\./\\.\\./([a-z].+/)?guards/",
						"order": 354
					},
					{
						"name": "grand1-resolver",
						"match": "^\\.\\./\\.\\./([a-z].+/)?resolvers/",
						"order": 356
					},
					{
						"name": "grand1-helper",
						"match": "^\\.\\./\\.\\./([a-z].+/)?helpers/",
						"order": 360
					},
					{
						"name": "grand1-interface",
						"match": "^\\.\\./\\.\\./([a-z].+/)?interfaces/",
						"order": 370
					},
					{
						"name": "grand1-type",
						"match": "^\\.\\./\\.\\./([a-z].+/)?types/",
						"order": 380
					},
					{
						"name": "grand1-enum",
						"match": "^\\.\\./\\.\\./([a-z].+/)?enums/",
						"order": 390
					},
					{
						"name": "parent-components",
						"match": "^\\.\\./([a-z].+/)?components/",
						"order": 400
					},
					{
						"name": "parent-pipes",
						"match": "^\\.\\./([a-z].+/)?pipes/",
						"order": 410
					},
					{
						"name": "parent-api",
						"match": "^\\.\\./([a-z].+/)?apis/",
						"order": 420
					},
					{
						"name": "parent-class",
						"match": "^\\.\\./([a-z].+/)?classes/",
						"order": 430
					},
					{
						"name": "parent-server",
						"match": "^\\.\\./([a-z].+/)?servers/",
						"order": 440
					},
					{
						"name": "parent-service",
						"match": "^\\.\\./([a-z].+/)?services/",
						"order": 450
					},
					{
						"name": "parent-guard",
						"match": "^\\.\\./([a-z].+/)?guards/",
						"order": 454
					},
					{
						"name": "parent-resolver",
						"match": "^\\.\\./([a-z].+/)?resolvers/",
						"order": 456
					},
					{
						"name": "parent-helper",
						"match": "^\\.\\./([a-z].+/)?helpers/",
						"order": 460
					},
					{
						"name": "parent-interface",
						"match": "^\\.\\./([a-z].+/)?interfaces/",
						"order": 470
					},
					{
						"name": "parent-type",
						"match": "^\\.\\./([a-z].+/)?types/",
						"order": 480
					},
					{
						"name": "parent-enum",
						"match": "^\\.\\./([a-z].+/)?enums/",
						"order": 490
					},
					{
						"name": "sibbling-components",
						"match": "^\\./([a-z].+/)?components/",
						"order": 500
					},
					{
						"name": "sibbling-pipes",
						"match": "^\\./([a-z].+/)?pipes/",
						"order": 510
					},
					{
						"name": "sibbling-api",
						"match": "^\\./([a-z].+/)?apis/",
						"order": 520
					},
					{
						"name": "sibbling-class",
						"match": "^\\./([a-z].+/)?classes/",
						"order": 530
					},
					{
						"name": "sibbling-server",
						"match": "^\\./([a-z].+/)?servers/",
						"order": 540
					},
					{
						"name": "sibbling-service",
						"match": "^\\./([a-z].+/)?services/",
						"order": 550
					},
					{
						"name": "sibbling-guard",
						"match": "^\\./([a-z].+/)?guards/",
						"order": 554
					},
					{
						"name": "sibbling-resolver",
						"match": "^\\./([a-z].+/)?resolvers/",
						"order": 556
					},
					{
						"name": "sibbling-helper",
						"match": "^\\./([a-z].+/)?helpers/",
						"order": 560
					},
					{
						"name": "sibbling-interface",
						"match": "^\\./([a-z].+/)?interfaces/",
						"order": 570
					},
					{
						"name": "sibbling-type",
						"match": "^\\./([a-z].+/)?types/",
						"order": 580
					},
					{
						"name": "sibbling-enum",
						"match": "^\\./([a-z].+/)?enums/",
						"order": 590
					},
					{
						"name": "sibbling-self",
						"match": "^\\./[^/]+$",
						"order": 600
					},
					{
						"name": "npm",
						"match": "^[a-zA-Z].*",
						"order": 30
					}
				]
			}
		],
		"quotemark": [
			true,
			"single"
		],
		"trailing-comma": [
			true,
			{
				"multiline": "never",
				"singleline": "never"
			}
		],
		"variable-name": {
			"options": [
				"check-format",
				"ban-keywords",
				"allow-leading-underscore"
			]
		},
		"no-output-on-prefix": false,
		"no-inputs-metadata-property": true,
		"no-outputs-metadata-property": true,
		"no-host-metadata-property": true,
		"no-input-rename": true,
		"no-output-rename": true,
		"use-lifecycle-interface": true,
		"use-pipe-transform-interface": true,
		"component-class-suffix": true,
		"directive-class-suffix": true,
		"align": [
			true,
			"parameters",
			"statements"
		],
		"arrow-return-shorthand": true,
		"class-name": true,
		"comment-format": false,
		"curly": [
			true,
			"ignore-same-line"
		],
		"indent": [
			true,
			"tabs",
			2
		],
		"interface-over-type-literal": false,
		"no-conditional-assignment": false,
		"no-invalid-template-strings": true,
		"no-invalid-this": true,
		"no-sparse-arrays": true,
		"no-string-literal": false,
		"no-unsafe-finally": true,
		"no-trailing-whitespace": [
			true,
			"ignore-blank-lines",
			"ignore-comments"
		],
		"object-literal-shorthand": [
			true,
			"never"
		],
		"one-line": [
			"check-catch",
			"check-finally",
			"check-else",
			"check-open-brace",
			"check-whitespace"
		],
		"prefer-const": true,
		"prefer-for-of": true,
		"type-literal-delimiter": true,
		"whitespace": [
			true,
			"check-decl",
			"check-operator",
			"check-module",
			"check-separator",
			"check-branch",
			"check-rest-spread",
			"check-type",
			"check-typecast",
			"check-preblock"
		],
		"unnecessary-constructor": true
	}
}
