{
	"$schema": "../../node_modules/ng-packagr/ng-package.schema.json",
	"dest": "../../dist/ngx-httpcommons-socket-io",
	"lib": {
		"entryFile": "src/public-api.ts",
		"umdModuleIds": {
			"socket.io-client": "socket.io-client"
		}
	}
}